^C:\USERS\YEZP13\DOCUMENTS\LEARN\助教\可编程管线改编\2015012015_钟昊东\RUBIKCUBE\RUBIKCUBE\GLAD.C
C:\USERS\YEZP13\DOCUMENTS\LEARN\助教\可编程管线改编\2015012015_钟昊东\RUBIKCUBE\RUBIKCUBE\DEBUG\VC110.PDB
C:\USERS\YEZP13\DOCUMENTS\LEARN\助教\可编程管线改编\2015012015_钟昊东\RUBIKCUBE\RUBIKCUBE\DEBUG\GLAD.OBJ
^C:\USERS\YEZP13\DOCUMENTS\LEARN\助教\可编程管线改编\2015012015_钟昊东\RUBIKCUBE\RUBIKCUBE\MAIN.CPP|C:\USERS\YEZP13\DOCUMENTS\LEARN\助教\可编程管线改编\2015012015_钟昊东\RUBIKCUBE\RUBIKCUBE\RUBIKCUBE.CPP
C:\USERS\YEZP13\DOCUMENTS\LEARN\助教\可编程管线改编\2015012015_钟昊东\RUBIKCUBE\RUBIKCUBE\DEBUG\MAIN.OBJ
C:\USERS\YEZP13\DOCUMENTS\LEARN\助教\可编程管线改编\2015012015_钟昊东\RUBIKCUBE\RUBIKCUBE\DEBUG\RUBIKCUBE.OBJ
^C:\USERS\YEZP13\DOCUMENTS\LEARN\助教\可编程管线改编\2015012015_钟昊东\RUBIKCUBE\RUBIKCUBE\MAIN.CPP
C:\USERS\YEZP13\DOCUMENTS\LEARN\助教\可编程管线改编\2015012015_钟昊东\RUBIKCUBE\RUBIKCUBE\DEBUG\VC110.PDB
^C:\USERS\YEZP13\DOCUMENTS\LEARN\助教\可编程管线改编\2015012015_钟昊东\RUBIKCUBE\RUBIKCUBE\RUBIKCUBE.CPP
C:\USERS\YEZP13\DOCUMENTS\LEARN\助教\可编程管线改编\2015012015_钟昊东\RUBIKCUBE\RUBIKCUBE\DEBUG\VC110.PDB
C:\USERS\YEZP13\DOCUMENTS\LEARN\助教\可编程管线改编\2015012015_钟昊东\RUBIKCUBE\RUBIKCUBE\DEBUG\RUBIKCUBE.OBJ
^C:\USERS\YEZP13\DOCUMENTS\LEARN\助教\可编程管线改编\2015012015_钟昊东\RUBIKCUBE_HOMEWORK\RUBIKCUBE\GLAD.C
C:\USERS\YEZP13\DOCUMENTS\LEARN\助教\可编程管线改编\2015012015_钟昊东\RUBIKCUBE_HOMEWORK\RUBIKCUBE\DEBUG\GLAD.OBJ
C:\USERS\YEZP13\DOCUMENTS\LEARN\助教\可编程管线改编\2015012015_钟昊东\RUBIKCUBE_HOMEWORK\RUBIKCUBE\DEBUG\VC110.PDB
^C:\USERS\YEZP13\DOCUMENTS\LEARN\助教\可编程管线改编\2015012015_钟昊东\RUBIKCUBE_HOMEWORK\RUBIKCUBE\MAIN.CPP|C:\USERS\YEZP13\DOCUMENTS\LEARN\助教\可编程管线改编\2015012015_钟昊东\RUBIKCUBE_HOMEWORK\RUBIKCUBE\RUBIKCUBE.CPP
C:\USERS\YEZP13\DOCUMENTS\LEARN\助教\可编程管线改编\2015012015_钟昊东\RUBIKCUBE_HOMEWORK\RUBIKCUBE\DEBUG\MAIN.OBJ
C:\USERS\YEZP13\DOCUMENTS\LEARN\助教\可编程管线改编\2015012015_钟昊东\RUBIKCUBE_HOMEWORK\RUBIKCUBE\DEBUG\RUBIKCUBE.OBJ
^C:\USERS\YEZP13\DOCUMENTS\LEARN\助教\可编程管线改编\2015012015_钟昊东\RUBIKCUBE_HOMEWORK\RUBIKCUBE\MAIN.CPP
C:\USERS\YEZP13\DOCUMENTS\LEARN\助教\可编程管线改编\2015012015_钟昊东\RUBIKCUBE_HOMEWORK\RUBIKCUBE\DEBUG\VC110.PDB
^C:\USERS\YEZP13\DOCUMENTS\LEARN\助教\可编程管线改编\2015012015_钟昊东\RUBIKCUBE_HOMEWORK\RUBIKCUBE\RUBIKCUBE.CPP
C:\USERS\YEZP13\DOCUMENTS\LEARN\助教\可编程管线改编\2015012015_钟昊东\RUBIKCUBE_HOMEWORK\RUBIKCUBE\DEBUG\VC110.PDB
C:\USERS\YEZP13\DOCUMENTS\LEARN\助教\可编程管线改编\2015012015_钟昊东\RUBIKCUBE_HOMEWORK\RUBIKCUBE\DEBUG\RUBIKCUBE.OBJ
