^D:\1DOCUMENT\学习\0大四（上）\计算机辅助设计\PROJECT\RUBIKCUBE\RUBIKCUBE\DEBUG\GLAD.OBJ|D:\1DOCUMENT\学习\0大四（上）\计算机辅助设计\PROJECT\RUBIKCUBE\RUBIKCUBE\DEBUG\MAIN.OBJ|D:\1DOCUMENT\学习\0大四（上）\计算机辅助设计\PROJECT\RUBIKCUBE\RUBIKCUBE\DEBUG\RUBIKCUBE.OBJ
/OUT:"D:\1DOCUMENT\学习\0大四（上）\计算机辅助设计\PROJECT\RUBIKCUBE\DEBUG\RUBIKCUBE.EXE" /INCREMENTAL /NOLOGO glfw3.lib SOIL.lib opengl32.lib kernel32.lib user32.lib gdi32.lib winspool.lib comdlg32.lib advapi32.lib shell32.lib ole32.lib oleaut32.lib uuid.lib odbc32.lib odbccp32.lib /MANIFEST /MANIFESTUAC:"level='asInvoker' uiAccess='false'" /manifest:embed /DEBUG /PDB:"D:\1DOCUMENT\学习\0大四（上）\计算机辅助设计\PROJECT\RUBIKCUBE\DEBUG\RUBIKCUBE.PDB" /TLBID:1 /DYNAMICBASE /NXCOMPAT /IMPLIB:"D:\1DOCUMENT\学习\0大四（上）\计算机辅助设计\PROJECT\RUBIKCUBE\DEBUG\RUBIKCUBE.LIB" /MACHINE:X86 DEBUG\GLAD.OBJDEBUG\MAIN.OBJDEBUG\RUBIKCUBE.OBJ
^D:\1DOCUMENT\学习\0大四（上）\计算机辅助设计\大作业3\大作业3_2015012015\RUBIKCUBE\RUBIKCUBE\DEBUG\GLAD.OBJ|D:\1DOCUMENT\学习\0大四（上）\计算机辅助设计\大作业3\大作业3_2015012015\RUBIKCUBE\RUBIKCUBE\DEBUG\MAIN.OBJ|D:\1DOCUMENT\学习\0大四（上）\计算机辅助设计\大作业3\大作业3_2015012015\RUBIKCUBE\RUBIKCUBE\DEBUG\RUBIKCUBE.OBJ
/OUT:"D:\1DOCUMENT\学习\0大四（上）\计算机辅助设计\大作业3\大作业3_2015012015\RUBIKCUBE\DEBUG\RUBIKCUBE.EXE" /INCREMENTAL /NOLOGO glfw3.lib SOIL.lib opengl32.lib kernel32.lib user32.lib gdi32.lib winspool.lib comdlg32.lib advapi32.lib shell32.lib ole32.lib oleaut32.lib uuid.lib odbc32.lib odbccp32.lib /MANIFEST /MANIFESTUAC:"level='asInvoker' uiAccess='false'" /manifest:embed /DEBUG /PDB:"D:\1DOCUMENT\学习\0大四（上）\计算机辅助设计\大作业3\大作业3_2015012015\RUBIKCUBE\DEBUG\RUBIKCUBE.PDB" /TLBID:1 /DYNAMICBASE /NXCOMPAT /IMPLIB:"D:\1DOCUMENT\学习\0大四（上）\计算机辅助设计\大作业3\大作业3_2015012015\RUBIKCUBE\DEBUG\RUBIKCUBE.LIB" /MACHINE:X86 DEBUG\GLAD.OBJDEBUG\MAIN.OBJDEBUG\RUBIKCUBE.OBJ
^C:\USERS\YEZP13\DOCUMENTS\LEARN\助教\可编程管线改编\2015012015_钟昊东\RUBIKCUBE\RUBIKCUBE\DEBUG\GLAD.OBJ|C:\USERS\YEZP13\DOCUMENTS\LEARN\助教\可编程管线改编\2015012015_钟昊东\RUBIKCUBE\RUBIKCUBE\DEBUG\MAIN.OBJ|C:\USERS\YEZP13\DOCUMENTS\LEARN\助教\可编程管线改编\2015012015_钟昊东\RUBIKCUBE\RUBIKCUBE\DEBUG\RUBIKCUBE.OBJ
/OUT:"C:\USERS\YEZP13\DOCUMENTS\LEARN\助教\可编程管线改编\2015012015_钟昊东\RUBIKCUBE\DEBUG\RUBIKCUBE.EXE" /INCREMENTAL /NOLOGO glfw3.lib SOIL.lib opengl32.lib kernel32.lib user32.lib gdi32.lib winspool.lib comdlg32.lib advapi32.lib shell32.lib ole32.lib oleaut32.lib uuid.lib odbc32.lib odbccp32.lib /NODEFAULTLIB:msvcrt.lib /MANIFEST /MANIFESTUAC:"level='asInvoker' uiAccess='false'" /manifest:embed /DEBUG /PDB:"C:\USERS\YEZP13\DOCUMENTS\LEARN\助教\可编程管线改编\2015012015_钟昊东\RUBIKCUBE\DEBUG\RUBIKCUBE.PDB" /TLBID:1 /DYNAMICBASE /NXCOMPAT /IMPLIB:"C:\USERS\YEZP13\DOCUMENTS\LEARN\助教\可编程管线改编\2015012015_钟昊东\RUBIKCUBE\DEBUG\RUBIKCUBE.LIB" /MACHINE:X86 DEBUG\GLAD.OBJDEBUG\MAIN.OBJDEBUG\RUBIKCUBE.OBJ
^C:\USERS\YEZP13\DOCUMENTS\LEARN\助教\可编程管线改编\2015012015_钟昊东\RUBIKCUBE_HOMEWORK\RUBIKCUBE\DEBUG\GLAD.OBJ|C:\USERS\YEZP13\DOCUMENTS\LEARN\助教\可编程管线改编\2015012015_钟昊东\RUBIKCUBE_HOMEWORK\RUBIKCUBE\DEBUG\MAIN.OBJ|C:\USERS\YEZP13\DOCUMENTS\LEARN\助教\可编程管线改编\2015012015_钟昊东\RUBIKCUBE_HOMEWORK\RUBIKCUBE\DEBUG\RUBIKCUBE.OBJ
/OUT:"C:\USERS\YEZP13\DOCUMENTS\LEARN\助教\可编程管线改编\2015012015_钟昊东\RUBIKCUBE_HOMEWORK\DEBUG\RUBIKCUBE.EXE" /INCREMENTAL /NOLOGO glfw3.lib SOIL.lib opengl32.lib kernel32.lib user32.lib gdi32.lib winspool.lib comdlg32.lib advapi32.lib shell32.lib ole32.lib oleaut32.lib uuid.lib odbc32.lib odbccp32.lib /NODEFAULTLIB:msvcrt.lib /MANIFEST /MANIFESTUAC:"level='asInvoker' uiAccess='false'" /manifest:embed /DEBUG /PDB:"C:\USERS\YEZP13\DOCUMENTS\LEARN\助教\可编程管线改编\2015012015_钟昊东\RUBIKCUBE_HOMEWORK\DEBUG\RUBIKCUBE.PDB" /TLBID:1 /DYNAMICBASE /NXCOMPAT /IMPLIB:"C:\USERS\YEZP13\DOCUMENTS\LEARN\助教\可编程管线改编\2015012015_钟昊东\RUBIKCUBE_HOMEWORK\DEBUG\RUBIKCUBE.LIB" /MACHINE:X86 DEBUG\GLAD.OBJDEBUG\MAIN.OBJDEBUG\RUBIKCUBE.OBJ
