# Blender v2.79 (sub 0) OBJ File: ''
# www.blender.org
#
# edited to fit simple format that
# my parser understands :D
v 0.000000 -0.951057 -0.309016
v 0.028745 0.987688 -0.153771
v 0.056782 0.951057 -0.303755
v 0.083421 0.891007 -0.446260
v 0.108005 0.809017 -0.577777
v 0.129931 0.707107 -0.695067
v 0.148657 0.587785 -0.795242
v 0.163722 0.453991 -0.875835
v 0.174756 0.309017 -0.934863
v 0.181487 0.156434 -0.970871
v 0.183750 -0.000000 -0.982973
v 0.181487 -0.156435 -0.970871
v 0.174756 -0.309017 -0.934863
v 0.163722 -0.453991 -0.875835
v 0.148657 -0.587786 -0.795242
v 0.129931 -0.707107 -0.695067
v 0.108005 -0.809017 -0.577777
v 0.083421 -0.891007 -0.446260
v 0.056782 -0.951057 -0.303755
v 0.028745 -0.987688 -0.153770
v 0.056511 0.987688 -0.145871
v 0.111630 0.951057 -0.288150
v 0.164001 0.891007 -0.423334
v 0.212333 0.809017 -0.548093
v 0.255437 0.707107 -0.659357
v 0.292251 0.587785 -0.754386
v 0.321869 0.453991 -0.830839
v 0.343562 0.309017 -0.886834
v 0.356794 0.156434 -0.920992
v 0.361242 -0.000000 -0.932472
v 0.356794 -0.156435 -0.920992
v 0.343562 -0.309017 -0.886834
v 0.321869 -0.453991 -0.830839
v 0.292251 -0.587786 -0.754386
v 0.255437 -0.707107 -0.659357
v 0.212333 -0.809017 -0.548093
v 0.164000 -0.891007 -0.423333
v 0.111630 -0.951057 -0.288149
v 0.056511 -0.987688 -0.145870
v 0.082353 0.987688 -0.133003
v 0.162677 0.951057 -0.262731
v 0.238996 0.891007 -0.385990
v 0.309429 0.809017 -0.499745
v 0.372244 0.707107 -0.601194
v 0.425893 0.587785 -0.687840
v 0.469055 0.453991 -0.757549
v 0.500667 0.309017 -0.808604
v 0.519951 0.156434 -0.839750
v 0.526433 -0.000000 -0.850217
v 0.519951 -0.156435 -0.839749
v 0.500667 -0.309017 -0.808604
v 0.469055 -0.453991 -0.757549
v 0.425893 -0.587786 -0.687840
v 0.372244 -0.707107 -0.601194
v 0.309429 -0.809017 -0.499745
v 0.238995 -0.891007 -0.385990
v 0.162677 -0.951057 -0.262731
v 0.082352 -0.987688 -0.133003
v 0.105390 0.987688 -0.115606
v 0.208184 0.951057 -0.228366
v 0.305852 0.891007 -0.335503
v 0.395989 0.809017 -0.434378
v 0.476375 0.707107 -0.522558
v 0.545032 0.587785 -0.597871
v 0.600268 0.453991 -0.658462
v 0.640723 0.309017 -0.702839
v 0.665402 0.156434 -0.729910
v 0.673696 -0.000000 -0.739009
v 0.665402 -0.156435 -0.729910
v 0.640723 -0.309017 -0.702839
v 0.600268 -0.453991 -0.658462
v 0.545032 -0.587786 -0.597870
v 0.476375 -0.707107 -0.522558
v 0.395989 -0.809017 -0.434378
v 0.305852 -0.891007 -0.335502
v 0.208184 -0.951057 -0.228366
v 0.105389 -0.987688 -0.115606
v 0.124838 0.987688 -0.094273
v 0.246602 0.951057 -0.186224
v 0.362293 0.891007 -0.273590
v 0.469063 0.809017 -0.354219
v 0.564284 0.707107 -0.426127
v 0.645610 0.587785 -0.487541
v 0.711039 0.453991 -0.536951
v 0.758960 0.309017 -0.573139
v 0.788193 0.156434 -0.595215
v 0.798018 -0.000000 -0.602634
v 0.788193 -0.156435 -0.595215
v 0.758960 -0.309017 -0.573139
v 0.711039 -0.453991 -0.536951
v 0.645610 -0.587786 -0.487541
v 0.564284 -0.707107 -0.426127
v 0.469063 -0.809017 -0.354219
v 0.362292 -0.891007 -0.273590
v 0.246601 -0.951057 -0.186224
v 0.124837 -0.987688 -0.094272
v 0.140035 0.987688 -0.069728
v 0.276621 0.951057 -0.137740
v 0.406396 0.891007 -0.202361
v 0.526164 0.809017 -0.261998
v 0.632977 0.707107 -0.315184
v 0.724203 0.587785 -0.360610
v 0.797597 0.453991 -0.397155
v 0.851351 0.309017 -0.423922
v 0.884143 0.156434 -0.440250
v 0.895164 -0.000000 -0.445738
v 0.884143 -0.156435 -0.440250
v 0.851351 -0.309017 -0.423922
v 0.797597 -0.453991 -0.397155
v 0.724203 -0.587786 -0.360610
v 0.632976 -0.707107 -0.315184
v 0.526164 -0.809017 -0.261998
v 0.406396 -0.891007 -0.202360
v 0.276621 -0.951057 -0.137740
v 0.140034 -0.987688 -0.069728
v 0.150463 0.987688 -0.042810
v 0.297221 0.951057 -0.084566
v 0.436661 0.891007 -0.124240
v 0.565348 0.809017 -0.160855
v 0.680114 0.707107 -0.193508
v 0.778134 0.587785 -0.221398
v 0.856994 0.453991 -0.243835
v 0.914751 0.309017 -0.260269
v 0.949985 0.156434 -0.270293
v 0.961826 -0.000000 -0.273663
v 0.949985 -0.156435 -0.270293
v 0.914751 -0.309017 -0.260269
v 0.856994 -0.453991 -0.243835
v 0.778134 -0.587786 -0.221398
v 0.680114 -0.707107 -0.193508
v 0.565347 -0.809017 -0.160855
v 0.436660 -0.891007 -0.124240
v 0.297221 -0.951057 -0.084566
v 0.150463 -0.987688 -0.042810
v 0.155768 0.987688 -0.014433
v 0.307700 0.951057 -0.028512
v 0.452055 0.891007 -0.041888
v 0.585279 0.809017 -0.054233
v 0.704091 0.707107 -0.065243
v 0.805567 0.587785 -0.074646
v 0.887206 0.453991 -0.082211
v 0.947000 0.309017 -0.087752
v 0.983476 0.156434 -0.091132
v 0.995735 -0.000000 -0.092268
v 0.983476 -0.156435 -0.091132
v 0.947000 -0.309017 -0.087752
v 0.887206 -0.453991 -0.082211
v 0.805566 -0.587786 -0.074646
v 0.704091 -0.707107 -0.065243
v 0.585278 -0.809017 -0.054233
v 0.452054 -0.891007 -0.041888
v 0.307699 -0.951057 -0.028512
v 0.155767 -0.987688 -0.014433
v 0.155768 0.987688 0.014435
v 0.307700 0.951057 0.028513
v 0.452055 0.891007 0.041890
v 0.585279 0.809017 0.054235
v 0.704091 0.707107 0.065244
v 0.805567 0.587785 0.074647
v 0.887206 0.453991 0.082212
v 0.947000 0.309017 0.087753
v 0.983476 0.156434 0.091133
v 0.995735 -0.000000 0.092269
v 0.983476 -0.156435 0.091133
v 0.947000 -0.309017 0.087753
v 0.887206 -0.453991 0.082212
v 0.805566 -0.587786 0.074647
v 0.704091 -0.707107 0.065244
v 0.585278 -0.809017 0.054235
v 0.452054 -0.891007 0.041890
v 0.307699 -0.951057 0.028513
v 0.155767 -0.987688 0.014435
v 0.150463 0.987688 0.042811
v 0.297221 0.951057 0.084568
v 0.436661 0.891007 0.124241
v 0.565348 0.809017 0.160856
v 0.680114 0.707107 0.193510
v 0.778134 0.587785 0.221399
v 0.856994 0.453991 0.243836
v 0.914751 0.309017 0.260270
v 0.949985 0.156434 0.270295
v 0.961826 -0.000000 0.273664
v 0.949985 -0.156435 0.270295
v 0.914751 -0.309017 0.260270
v 0.856994 -0.453991 0.243836
v 0.778134 -0.587786 0.221399
v 0.680114 -0.707107 0.193510
v 0.565347 -0.809017 0.160856
v 0.436660 -0.891007 0.124241
v 0.297221 -0.951057 0.084567
v 0.150463 -0.987688 0.042811
v 0.140035 0.987688 0.069730
v 0.276621 0.951057 0.137742
v 0.406396 0.891007 0.202362
v 0.526164 0.809017 0.261999
v 0.632977 0.707107 0.315186
v 0.724203 0.587785 0.360611
v 0.797597 0.453991 0.397157
v 0.851352 0.309017 0.423923
v 0.884143 0.156434 0.440251
v 0.895164 -0.000000 0.445739
v 0.884143 -0.156435 0.440251
v 0.851351 -0.309017 0.423923
v 0.797597 -0.453991 0.397157
v 0.724203 -0.587786 0.360611
v 0.632976 -0.707107 0.315185
v 0.526164 -0.809017 0.261999
v 0.406396 -0.891007 0.202362
v 0.276621 -0.951057 0.137742
v 0.140034 -0.987688 0.069730
v 0.124838 0.987688 0.094274
v 0.246602 0.951057 0.186226
v 0.362293 0.891007 0.273592
v 0.469063 0.809017 0.354221
v 0.564284 0.707107 0.426128
v 0.645610 0.587785 0.487543
v 0.711039 0.453991 0.536952
v 0.758960 0.309017 0.573141
v 0.788193 0.156434 0.595216
v 0.798018 -0.000000 0.602636
v 0.788193 -0.156435 0.595216
v 0.758960 -0.309017 0.573141
v 0.711039 -0.453991 0.536952
v 0.645610 -0.587786 0.487542
v 0.564284 -0.707107 0.426128
v 0.469063 -0.809017 0.354221
v 0.362293 -0.891007 0.273591
v 0.246601 -0.951057 0.186225
v 0.124837 -0.987688 0.094274
v 0.105390 0.987688 0.115608
v 0.208184 0.951057 0.228368
v 0.305852 0.891007 0.335504
v 0.395989 0.809017 0.434380
v 0.476375 0.707107 0.522559
v 0.545032 0.587785 0.597872
v 0.600268 0.453991 0.658463
v 0.640723 0.309017 0.702840
v 0.665402 0.156434 0.729912
v 0.673696 -0.000000 0.739010
v 0.665402 -0.156435 0.729912
v 0.640723 -0.309017 0.702840
v 0.600268 -0.453991 0.658463
v 0.545032 -0.587786 0.597872
v 0.476375 -0.707107 0.522559
v 0.395989 -0.809017 0.434379
v 0.305852 -0.891007 0.335504
v 0.208184 -0.951057 0.228367
v 0.105389 -0.987688 0.115607
v 0.082353 0.987688 0.133005
v 0.162677 0.951057 0.262733
v 0.238996 0.891007 0.385992
v 0.309430 0.809017 0.499746
v 0.372244 0.707107 0.601196
v 0.425893 0.587785 0.687841
v 0.469055 0.453991 0.757550
v 0.500667 0.309017 0.808606
v 0.519951 0.156434 0.839751
v 0.526433 -0.000000 0.850218
v 0.519951 -0.156435 0.839751
v 0.500667 -0.309017 0.808606
v 0.469055 -0.453991 0.757550
v 0.425893 -0.587786 0.687841
v 0.372244 -0.707107 0.601195
v 0.309429 -0.809017 0.499746
v 0.238995 -0.891007 0.385992
v 0.162677 -0.951057 0.262733
v 0.082352 -0.987688 0.133004
v 0.056511 0.987688 0.145872
v 0.111630 0.951057 0.288151
v 0.164001 0.891007 0.423335
v 0.212333 0.809017 0.548095
v 0.255437 0.707107 0.659359
v 0.292251 0.587785 0.754387
v 0.321869 0.453991 0.830840
v 0.343562 0.309017 0.886835
v 0.356795 0.156434 0.920993
v 0.361242 -0.000000 0.932473
v 0.356795 -0.156435 0.920993
v 0.343562 -0.309017 0.886835
v 0.321869 -0.453991 0.830840
v 0.292251 -0.587786 0.754387
v 0.255437 -0.707107 0.659358
v 0.212333 -0.809017 0.548094
v 0.164000 -0.891007 0.423335
v 0.111630 -0.951057 0.288151
v 0.056511 -0.987688 0.145872
v 0.028745 0.987688 0.153772
v 0.056782 0.951057 0.303757
v 0.083421 0.891007 0.446262
v 0.108006 0.809017 0.577779
v 0.129931 0.707107 0.695068
v 0.148657 0.587785 0.795243
v 0.163722 0.453991 0.875837
v 0.174756 0.309017 0.934864
v 0.181488 0.156434 0.970872
v 0.183750 -0.000000 0.982974
v 0.181488 -0.156435 0.970872
v 0.174756 -0.309017 0.934864
v 0.163722 -0.453991 0.875837
v 0.148657 -0.587786 0.795243
v 0.129931 -0.707107 0.695068
v 0.108006 -0.809017 0.577778
v 0.083421 -0.891007 0.446261
v 0.056782 -0.951057 0.303756
v 0.028745 -0.987688 0.153772
v 0.000000 0.987688 0.156436
v 0.000000 0.951057 0.309019
v 0.000000 0.891007 0.453992
v 0.000000 0.809017 0.587787
v 0.000000 0.707107 0.707108
v 0.000000 0.587785 0.809018
v 0.000000 0.453991 0.891008
v 0.000000 0.309017 0.951058
v 0.000000 0.156434 0.987690
v 0.000000 -0.000000 1.000001
v 0.000000 -0.156435 0.987690
v 0.000000 -0.309017 0.951058
v 0.000000 -0.453991 0.891008
v 0.000000 -0.587786 0.809018
v 0.000000 -0.707107 0.707108
v 0.000000 -0.809017 0.587786
v 0.000000 -0.891007 0.453992
v 0.000000 -0.951057 0.309018
v 0.000000 -0.987688 0.156435
v -0.028745 0.987688 0.153772
v -0.056782 0.951057 0.303757
v -0.083421 0.891007 0.446262
v -0.108005 0.809017 0.577779
v -0.129930 0.707107 0.695068
v -0.148656 0.587785 0.795243
v -0.163722 0.453991 0.875837
v -0.174756 0.309017 0.934864
v -0.181487 0.156434 0.970873
v -0.183749 -0.000000 0.982974
v -0.181487 -0.156435 0.970873
v -0.174756 -0.309017 0.934864
v -0.163722 -0.453991 0.875837
v -0.148656 -0.587786 0.795243
v -0.129930 -0.707107 0.695068
v -0.108005 -0.809017 0.577778
v -0.083420 -0.891007 0.446261
v -0.056782 -0.951057 0.303756
v -0.028745 -0.987688 0.153772
v 0.000000 -1.000000 0.000001
v -0.056511 0.987688 0.145872
v -0.111630 0.951057 0.288151
v -0.164000 0.891007 0.423335
v -0.212333 0.809017 0.548095
v -0.255436 0.707107 0.659359
v -0.292251 0.587785 0.754387
v -0.321869 0.453991 0.830840
v -0.343561 0.309017 0.886835
v -0.356794 0.156434 0.920993
v -0.361242 -0.000000 0.932474
v -0.356794 -0.156435 0.920993
v -0.343561 -0.309017 0.886835
v -0.321869 -0.453991 0.830840
v -0.292251 -0.587786 0.754387
v -0.255436 -0.707107 0.659358
v -0.212332 -0.809017 0.548095
v -0.164000 -0.891007 0.423335
v -0.111630 -0.951057 0.288151
v -0.056511 -0.987688 0.145872
v -0.082353 0.987688 0.133005
v -0.162677 0.951057 0.262733
v -0.238996 0.891007 0.385992
v -0.309429 0.809017 0.499746
v -0.372244 0.707107 0.601196
v -0.425893 0.587785 0.687842
v -0.469055 0.453991 0.757550
v -0.500667 0.309017 0.808606
v -0.519951 0.156434 0.839751
v -0.526432 -0.000000 0.850218
v -0.519951 -0.156435 0.839751
v -0.500667 -0.309017 0.808606
v -0.469055 -0.453991 0.757550
v -0.425893 -0.587786 0.687841
v -0.372244 -0.707107 0.601195
v -0.309429 -0.809017 0.499746
v -0.238995 -0.891007 0.385992
v -0.162677 -0.951057 0.262732
v -0.082352 -0.987688 0.133004
v -0.105390 0.987688 0.115608
v -0.208184 0.951057 0.228368
v -0.305852 0.891007 0.335505
v -0.395989 0.809017 0.434380
v -0.476375 0.707107 0.522559
v -0.545031 0.587785 0.597872
v -0.600267 0.453991 0.658463
v -0.640723 0.309017 0.702840
v -0.665402 0.156434 0.729912
v -0.673696 -0.000000 0.739010
v -0.665402 -0.156435 0.729912
v -0.640723 -0.309017 0.702840
v -0.600267 -0.453991 0.658463
v -0.545031 -0.587786 0.597872
v -0.476375 -0.707107 0.522559
v -0.395988 -0.809017 0.434380
v -0.305851 -0.891007 0.335504
v -0.208183 -0.951057 0.228367
v -0.105389 -0.987688 0.115607
v -0.000001 1.000000 0.000001
v -0.124838 0.987688 0.094274
v -0.246601 0.951057 0.186226
v -0.362293 0.891007 0.273592
v -0.469063 0.809017 0.354221
v -0.564284 0.707107 0.426128
v -0.645610 0.587785 0.487543
v -0.711039 0.453991 0.536953
v -0.758960 0.309017 0.573141
v -0.788193 0.156434 0.595217
v -0.798018 -0.000000 0.602636
v -0.788193 -0.156435 0.595217
v -0.758960 -0.309017 0.573141
v -0.711039 -0.453991 0.536952
v -0.645610 -0.587786 0.487543
v -0.564283 -0.707107 0.426128
v -0.469063 -0.809017 0.354221
v -0.362292 -0.891007 0.273591
v -0.246601 -0.951057 0.186225
v -0.124837 -0.987688 0.094274
v -0.140035 0.987688 0.069730
v -0.276621 0.951057 0.137742
v -0.406396 0.891007 0.202362
v -0.526164 0.809017 0.262000
v -0.632976 0.707107 0.315186
v -0.724203 0.587785 0.360611
v -0.797597 0.453991 0.397157
v -0.851351 0.309017 0.423923
v -0.884143 0.156434 0.440252
v -0.895164 -0.000000 0.445739
v -0.884143 -0.156435 0.440252
v -0.851351 -0.309017 0.423923
v -0.797597 -0.453991 0.397157
v -0.724203 -0.587786 0.360611
v -0.632976 -0.707107 0.315186
v -0.526164 -0.809017 0.262000
v -0.406396 -0.891007 0.202362
v -0.276621 -0.951057 0.137742
v -0.140034 -0.987688 0.069730
v -0.150463 0.987688 0.042811
v -0.297221 0.951057 0.084568
v -0.436660 0.891007 0.124242
v -0.565347 0.809017 0.160856
v -0.680114 0.707107 0.193510
v -0.778134 0.587785 0.221399
v -0.856993 0.453991 0.243837
v -0.914751 0.309017 0.260270
v -0.949985 0.156434 0.270295
v -0.961826 -0.000000 0.273664
v -0.949985 -0.156435 0.270295
v -0.914751 -0.309017 0.260270
v -0.856993 -0.453991 0.243836
v -0.778134 -0.587786 0.221399
v -0.680114 -0.707107 0.193510
v -0.565347 -0.809017 0.160856
v -0.436660 -0.891007 0.124241
v -0.297221 -0.951057 0.084567
v -0.150463 -0.987688 0.042811
v -0.155768 0.987688 0.014435
v -0.307699 0.951057 0.028513
v -0.452055 0.891007 0.041890
v -0.585279 0.809017 0.054235
v -0.704091 0.707107 0.065245
v -0.805567 0.587785 0.074648
v -0.887206 0.453991 0.082213
v -0.947000 0.309017 0.087753
v -0.983476 0.156434 0.091133
v -0.995735 -0.000000 0.092269
v -0.983476 -0.156435 0.091133
v -0.947000 -0.309017 0.087753
v -0.887206 -0.453991 0.082213
v -0.805566 -0.587786 0.074648
v -0.704091 -0.707107 0.065244
v -0.585278 -0.809017 0.054235
v -0.452054 -0.891007 0.041890
v -0.307699 -0.951057 0.028513
v -0.155767 -0.987688 0.014435
v -0.155768 0.987688 -0.014433
v -0.307700 0.951057 -0.028512
v -0.452055 0.891007 -0.041888
v -0.585279 0.809017 -0.054233
v -0.704091 0.707107 -0.065243
v -0.805567 0.587785 -0.074646
v -0.887206 0.453991 -0.082211
v -0.947000 0.309017 -0.087752
v -0.983476 0.156434 -0.091131
v -0.995735 -0.000000 -0.092268
v -0.983476 -0.156435 -0.091131
v -0.947000 -0.309017 -0.087752
v -0.887206 -0.453991 -0.082211
v -0.805566 -0.587786 -0.074646
v -0.704091 -0.707107 -0.065243
v -0.585278 -0.809017 -0.054233
v -0.452054 -0.891007 -0.041888
v -0.307699 -0.951057 -0.028512
v -0.155767 -0.987688 -0.014433
v -0.150463 0.987688 -0.042810
v -0.297221 0.951057 -0.084566
v -0.436660 0.891007 -0.124240
v -0.565348 0.809017 -0.160854
v -0.680114 0.707107 -0.193508
v -0.778134 0.587785 -0.221397
v -0.856993 0.453991 -0.243835
v -0.914751 0.309017 -0.260268
v -0.949985 0.156434 -0.270293
v -0.961826 -0.000000 -0.273662
v -0.949985 -0.156435 -0.270293
v -0.914751 -0.309017 -0.260268
v -0.856993 -0.453991 -0.243835
v -0.778134 -0.587786 -0.221397
v -0.680114 -0.707107 -0.193508
v -0.565347 -0.809017 -0.160854
v -0.436660 -0.891007 -0.124239
v -0.297221 -0.951057 -0.084566
v -0.150463 -0.987688 -0.042810
v -0.140035 0.987688 -0.069728
v -0.276621 0.951057 -0.137740
v -0.406396 0.891007 -0.202360
v -0.526165 0.809017 -0.261998
v -0.632977 0.707107 -0.315184
v -0.724203 0.587785 -0.360609
v -0.797597 0.453991 -0.397155
v -0.851351 0.309017 -0.423922
v -0.884143 0.156434 -0.440250
v -0.895164 -0.000000 -0.445738
v -0.884143 -0.156435 -0.440250
v -0.851351 -0.309017 -0.423922
v -0.797597 -0.453991 -0.397155
v -0.724203 -0.587786 -0.360609
v -0.632976 -0.707107 -0.315184
v -0.526164 -0.809017 -0.261998
v -0.406396 -0.891007 -0.202360
v -0.276621 -0.951057 -0.137740
v -0.140035 -0.987688 -0.069728
v -0.124838 0.987688 -0.094272
v -0.246601 0.951057 -0.186224
v -0.362293 0.891007 -0.273590
v -0.469063 0.809017 -0.354219
v -0.564284 0.707107 -0.426126
v -0.645610 0.587785 -0.487541
v -0.711039 0.453991 -0.536951
v -0.758960 0.309017 -0.573139
v -0.788193 0.156434 -0.595215
v -0.798018 -0.000000 -0.602634
v -0.788193 -0.156435 -0.595215
v -0.758960 -0.309017 -0.573139
v -0.711039 -0.453991 -0.536951
v -0.645610 -0.587786 -0.487541
v -0.564284 -0.707107 -0.426126
v -0.469063 -0.809017 -0.354219
v -0.362292 -0.891007 -0.273590
v -0.246601 -0.951057 -0.186224
v -0.124838 -0.987688 -0.094272
v -0.105390 0.987688 -0.115606
v -0.208184 0.951057 -0.228366
v -0.305852 0.891007 -0.335503
v -0.395989 0.809017 -0.434378
v -0.476375 0.707107 -0.522558
v -0.545032 0.587785 -0.597870
v -0.600268 0.453991 -0.658461
v -0.640723 0.309017 -0.702839
v -0.665402 0.156434 -0.729910
v -0.673696 -0.000000 -0.739009
v -0.665402 -0.156435 -0.729910
v -0.640723 -0.309017 -0.702839
v -0.600268 -0.453991 -0.658461
v -0.545032 -0.587786 -0.597870
v -0.476375 -0.707107 -0.522558
v -0.395989 -0.809017 -0.434378
v -0.305852 -0.891007 -0.335502
v -0.208184 -0.951057 -0.228366
v -0.105389 -0.987688 -0.115606
v -0.082353 0.987688 -0.133003
v -0.162677 0.951057 -0.262731
v -0.238996 0.891007 -0.385990
v -0.309430 0.809017 -0.499745
v -0.372244 0.707107 -0.601194
v -0.425893 0.587785 -0.687840
v -0.469055 0.453991 -0.757549
v -0.500667 0.309017 -0.808604
v -0.519951 0.156434 -0.839749
v -0.526433 -0.000000 -0.850217
v -0.519951 -0.156435 -0.839749
v -0.500667 -0.309017 -0.808604
v -0.469055 -0.453991 -0.757549
v -0.425893 -0.587786 -0.687840
v -0.372244 -0.707107 -0.601194
v -0.309430 -0.809017 -0.499745
v -0.238995 -0.891007 -0.385990
v -0.162677 -0.951057 -0.262731
v -0.082352 -0.987688 -0.133003
v -0.056511 0.987688 -0.145871
v -0.111630 0.951057 -0.288150
v -0.164001 0.891007 -0.423333
v -0.212333 0.809017 -0.548093
v -0.255437 0.707107 -0.659357
v -0.292251 0.587785 -0.754386
v -0.321869 0.453991 -0.830839
v -0.343562 0.309017 -0.886834
v -0.356795 0.156434 -0.920992
v -0.361242 -0.000000 -0.932472
v -0.356795 -0.156435 -0.920992
v -0.343562 -0.309017 -0.886834
v -0.321869 -0.453991 -0.830839
v -0.292251 -0.587786 -0.754386
v -0.255437 -0.707107 -0.659357
v -0.212333 -0.809017 -0.548093
v -0.164000 -0.891007 -0.423333
v -0.111630 -0.951057 -0.288149
v -0.056511 -0.987688 -0.145870
v -0.028745 0.987688 -0.153771
v -0.056782 0.951057 -0.303755
v -0.083421 0.891007 -0.446260
v -0.108006 0.809017 -0.577777
v -0.129931 0.707107 -0.695067
v -0.148657 0.587785 -0.795242
v -0.163722 0.453991 -0.875835
v -0.174756 0.309017 -0.934863
v -0.181488 0.156434 -0.970871
v -0.183750 -0.000000 -0.982973
v -0.181488 -0.156435 -0.970871
v -0.174756 -0.309017 -0.934863
v -0.163722 -0.453991 -0.875835
v -0.148657 -0.587786 -0.795242
v -0.129931 -0.707107 -0.695067
v -0.108006 -0.809017 -0.577777
v -0.083421 -0.891007 -0.446260
v -0.056782 -0.951057 -0.303755
v -0.028745 -0.987688 -0.153770
v -0.000000 0.987688 -0.156434
v -0.000000 0.951057 -0.309017
v -0.000000 0.891007 -0.453991
v -0.000000 0.809017 -0.587785
v -0.000000 0.707107 -0.707107
v -0.000000 0.587785 -0.809017
v -0.000000 0.453991 -0.891006
v -0.000000 0.309017 -0.951056
v -0.000000 0.156434 -0.987688
v -0.000000 -0.000000 -1.000000
v -0.000000 -0.156435 -0.987688
v -0.000000 -0.309017 -0.951056
v -0.000000 -0.453991 -0.891006
v -0.000000 -0.587786 -0.809017
v -0.000000 -0.707107 -0.707106
v -0.000000 -0.809017 -0.587785
v -0.000000 -0.891007 -0.453990
v -0.000000 -0.987688 -0.156434
f 640 12 641 
f 633 5 634 
f 648 19 20 
f 642 12 13 
f 635 5 6 
f 344 648 20 
f 642 14 643 
f 636 6 7 
f 644 14 15 
f 637 7 8 
f 645 15 16 
f 638 8 9 
f 631 402 2 
f 646 16 17 
f 638 10 639 
f 632 2 3 
f 647 17 18 
f 640 10 11 
f 633 3 4 
f 647 19 1 
f 6 26 7 
f 14 34 15 
f 8 26 27 
f 15 35 16 
f 8 28 9 
f 2 402 21 
f 16 36 17 
f 9 29 10 
f 3 21 22 
f 17 37 18 
f 11 29 30 
f 4 22 23 
f 18 38 19 
f 11 31 12 
f 5 23 24 
f 19 39 20 
f 13 31 32 
f 5 25 6 
f 344 20 39 
f 13 33 14 
f 21 41 22 
f 36 56 37 
f 30 48 49 
f 22 42 23 
f 37 57 38 
f 30 50 31 
f 24 42 43 
f 38 58 39 
f 32 50 51 
f 24 44 25 
f 344 39 58 
f 32 52 33 
f 25 45 26 
f 33 53 34 
f 27 45 46 
f 34 54 35 
f 27 47 28 
f 21 402 40 
f 35 55 36 
f 28 48 29 
f 344 58 77 
f 52 70 71 
f 44 64 45 
f 52 72 53 
f 46 64 65 
f 54 72 73 
f 47 65 66 
f 40 402 59 
f 54 74 55 
f 47 67 48 
f 40 60 41 
f 56 74 75 
f 49 67 68 
f 41 61 42 
f 57 75 76 
f 49 69 50 
f 43 61 62 
f 58 76 77 
f 51 69 70 
f 44 62 63 
f 73 93 74 
f 66 86 67 
f 59 79 60 
f 75 93 94 
f 68 86 87 
f 60 80 61 
f 76 94 95 
f 68 88 69 
f 62 80 81 
f 76 96 77 
f 70 88 89 
f 62 82 63 
f 344 77 96 
f 71 89 90 
f 63 83 64 
f 71 91 72 
f 65 83 84 
f 73 91 92 
f 66 84 85 
f 59 402 78 
f 88 108 89 
f 81 101 82 
f 344 96 115 
f 90 108 109 
f 82 102 83 
f 90 110 91 
f 84 102 103 
f 92 110 111 
f 84 104 85 
f 78 402 97 
f 92 112 93 
f 85 105 86 
f 78 98 79 
f 94 112 113 
f 87 105 106 
f 79 99 80 
f 95 113 114 
f 87 107 88 
f 81 99 100 
f 95 115 96 
f 103 123 104 
f 97 402 116 
f 111 131 112 
f 104 124 105 
f 97 117 98 
f 113 131 132 
f 106 124 125 
f 98 118 99 
f 114 132 133 
f 106 126 107 
f 100 118 119 
f 114 134 115 
f 108 126 127 
f 100 120 101 
f 344 115 134 
f 109 127 128 
f 101 121 102 
f 109 129 110 
f 103 121 122 
f 111 129 130 
f 119 137 138 
f 133 153 134 
f 127 145 146 
f 119 139 120 
f 344 134 153 
f 128 146 147 
f 120 140 121 
f 128 148 129 
f 122 140 141 
f 130 148 149 
f 122 142 123 
f 116 402 135 
f 130 150 131 
f 123 143 124 
f 116 136 117 
f 132 150 151 
f 125 143 144 
f 117 137 118 
f 133 151 152 
f 125 145 126 
f 149 167 168 
f 141 161 142 
f 135 402 154 
f 149 169 150 
f 142 162 143 
f 136 154 155 
f 151 169 170 
f 144 162 163 
f 136 156 137 
f 152 170 171 
f 144 164 145 
f 137 157 138 
f 152 172 153 
f 146 164 165 
f 138 158 139 
f 344 153 172 
f 147 165 166 
f 139 159 140 
f 147 167 148 
f 141 159 160 
f 163 183 164 
f 156 176 157 
f 171 191 172 
f 165 183 184 
f 157 177 158 
f 344 172 191 
f 166 184 185 
f 158 178 159 
f 166 186 167 
f 160 178 179 
f 168 186 187 
f 160 180 161 
f 154 402 173 
f 168 188 169 
f 161 181 162 
f 155 173 174 
f 170 188 189 
f 163 181 182 
f 155 175 156 
f 171 189 190 
f 179 197 198 
f 187 205 206 
f 179 199 180 
f 173 402 192 
f 187 207 188 
f 180 200 181 
f 173 193 174 
f 189 207 208 
f 182 200 201 
f 175 193 194 
f 190 208 209 
f 182 202 183 
f 175 195 176 
f 190 210 191 
f 184 202 203 
f 176 196 177 
f 344 191 210 
f 185 203 204 
f 177 197 178 
f 185 205 186 
f 193 213 194 
f 209 227 228 
f 201 221 202 
f 194 214 195 
f 209 229 210 
f 203 221 222 
f 195 215 196 
f 344 210 229 
f 204 222 223 
f 196 216 197 
f 204 224 205 
f 198 216 217 
f 206 224 225 
f 198 218 199 
f 192 402 211 
f 206 226 207 
f 199 219 200 
f 192 212 193 
f 208 226 227 
f 201 219 220 
f 223 243 224 
f 217 235 236 
f 225 243 244 
f 217 237 218 
f 211 402 230 
f 225 245 226 
f 218 238 219 
f 211 231 212 
f 227 245 246 
f 220 238 239 
f 212 232 213 
f 228 246 247 
f 220 240 221 
f 213 233 214 
f 228 248 229 
f 222 240 241 
f 215 233 234 
f 344 229 248 
f 223 241 242 
f 215 235 216 
f 246 264 265 
f 239 257 258 
f 231 251 232 
f 247 265 266 
f 239 259 240 
f 232 252 233 
f 247 267 248 
f 241 259 260 
f 234 252 253 
f 344 248 267 
f 242 260 261 
f 234 254 235 
f 242 262 243 
f 236 254 255 
f 244 262 263 
f 236 256 237 
f 230 402 249 
f 244 264 245 
f 237 257 238 
f 230 250 231 
f 261 279 280 
f 253 273 254 
f 261 281 262 
f 255 273 274 
f 263 281 282 
f 255 275 256 
f 249 402 268 
f 263 283 264 
f 256 276 257 
f 249 269 250 
f 265 283 284 
f 258 276 277 
f 250 270 251 
f 266 284 285 
f 258 278 259 
f 251 271 252 
f 266 286 267 
f 260 278 279 
f 253 271 272 
f 344 267 286 
f 275 295 276 
f 268 288 269 
f 284 302 303 
f 277 295 296 
f 269 289 270 
f 285 303 304 
f 277 297 278 
f 270 290 271 
f 285 305 286 
f 279 297 298 
f 272 290 291 
f 344 286 305 
f 280 298 299 
f 272 292 273 
f 280 300 281 
f 274 292 293 
f 281 301 282 
f 274 294 275 
f 268 402 287 
f 282 302 283 
f 291 309 310 
f 344 305 324 
f 299 317 318 
f 291 311 292 
f 299 319 300 
f 293 311 312 
f 300 320 301 
f 293 313 294 
f 287 402 306 
f 301 321 302 
f 294 314 295 
f 287 307 288 
f 303 321 322 
f 296 314 315 
f 288 308 289 
f 304 322 323 
f 296 316 297 
f 289 309 290 
f 305 323 324 
f 298 316 317 
f 306 402 325 
f 320 340 321 
f 313 333 314 
f 306 326 307 
f 322 340 341 
f 315 333 334 
f 307 327 308 
f 323 341 342 
f 315 335 316 
f 308 328 309 
f 324 342 343 
f 317 335 336 
f 309 329 310 
f 344 324 343 
f 318 336 337 
f 310 330 311 
f 318 338 319 
f 312 330 331 
f 320 338 339 
f 312 332 313 
f 336 355 356 
f 329 348 349 
f 344 343 363 
f 337 356 357 
f 329 350 330 
f 337 358 338 
f 331 350 351 
f 339 358 359 
f 331 352 332 
f 325 402 345 
f 339 360 340 
f 332 353 333 
f 325 346 326 
f 341 360 361 
f 334 353 354 
f 326 347 327 
f 342 361 362 
f 334 355 335 
f 327 348 328 
f 343 362 363 
f 352 370 371 
f 345 402 364 
f 359 379 360 
f 352 372 353 
f 345 365 346 
f 361 379 380 
f 354 372 373 
f 346 366 347 
f 362 380 381 
f 354 374 355 
f 348 366 367 
f 363 381 382 
f 356 374 375 
f 348 368 349 
f 344 363 382 
f 357 375 376 
f 349 369 350 
f 357 377 358 
f 351 369 370 
f 359 377 378 
f 367 385 386 
f 381 401 382 
f 375 393 394 
f 368 386 387 
f 344 382 401 
f 376 394 395 
f 368 388 369 
f 376 396 377 
f 370 388 389 
f 377 397 378 
f 371 389 390 
f 364 402 383 
f 378 398 379 
f 371 391 372 
f 364 384 365 
f 380 398 399 
f 373 391 392 
f 365 385 366 
f 381 399 400 
f 373 393 374 
f 396 417 397 
f 390 409 410 
f 383 402 403 
f 397 418 398 
f 390 411 391 
f 383 404 384 
f 399 418 419 
f 392 411 412 
f 384 405 385 
f 400 419 420 
f 392 413 393 
f 385 406 386 
f 400 421 401 
f 394 413 414 
f 387 406 407 
f 344 401 421 
f 395 414 415 
f 387 408 388 
f 395 416 396 
f 389 408 409 
f 420 438 439 
f 412 432 413 
f 406 424 425 
f 420 440 421 
f 414 432 433 
f 406 426 407 
f 344 421 440 
f 415 433 434 
f 407 427 408 
f 415 435 416 
f 409 427 428 
f 416 436 417 
f 410 428 429 
f 403 402 422 
f 417 437 418 
f 410 430 411 
f 403 423 404 
f 419 437 438 
f 412 430 431 
f 404 424 405 
f 434 454 435 
f 428 446 447 
f 436 454 455 
f 429 447 448 
f 422 402 441 
f 436 456 437 
f 429 449 430 
f 422 442 423 
f 437 457 438 
f 431 449 450 
f 423 443 424 
f 439 457 458 
f 431 451 432 
f 425 443 444 
f 439 459 440 
f 433 451 452 
f 426 444 445 
f 344 440 459 
f 433 453 434 
f 426 446 427 
f 450 468 469 
f 442 462 443 
f 458 476 477 
f 450 470 451 
f 444 462 463 
f 458 478 459 
f 452 470 471 
f 445 463 464 
f 344 459 478 
f 452 472 453 
f 446 464 465 
f 453 473 454 
f 447 465 466 
f 455 473 474 
f 448 466 467 
f 441 402 460 
f 455 475 456 
f 448 468 449 
f 441 461 442 
f 456 476 457 
f 465 483 484 
f 472 492 473 
f 466 484 485 
f 474 492 493 
f 467 485 486 
f 460 402 479 
f 474 494 475 
f 467 487 468 
f 461 479 480 
f 476 494 495 
f 469 487 488 
f 461 481 462 
f 477 495 496 
f 469 489 470 
f 463 481 482 
f 478 496 497 
f 471 489 490 
f 463 483 464 
f 344 478 497 
f 471 491 472 
f 479 499 480 
f 495 513 514 
f 488 506 507 
f 480 500 481 
f 496 514 515 
f 488 508 489 
f 482 500 501 
f 497 515 516 
f 490 508 509 
f 483 501 502 
f 344 497 516 
f 490 510 491 
f 484 502 503 
f 491 511 492 
f 485 503 504 
f 493 511 512 
f 486 504 505 
f 479 402 498 
f 493 513 494 
f 486 506 487 
f 509 529 510 
f 503 521 522 
f 510 530 511 
f 504 522 523 
f 512 530 531 
f 505 523 524 
f 498 402 517 
f 512 532 513 
f 505 525 506 
f 498 518 499 
f 513 533 514 
f 507 525 526 
f 499 519 500 
f 515 533 534 
f 507 527 508 
f 501 519 520 
f 515 535 516 
f 509 527 528 
f 501 521 502 
f 344 516 535 
f 524 544 525 
f 517 537 518 
f 533 551 552 
f 526 544 545 
f 518 538 519 
f 534 552 553 
f 526 546 527 
f 520 538 539 
f 534 554 535 
f 528 546 547 
f 520 540 521 
f 344 535 554 
f 528 548 529 
f 522 540 541 
f 529 549 530 
f 523 541 542 
f 531 549 550 
f 524 542 543 
f 517 402 536 
f 531 551 532 
f 539 559 540 
f 344 554 573 
f 547 567 548 
f 541 559 560 
f 548 568 549 
f 541 561 542 
f 550 568 569 
f 543 561 562 
f 536 402 555 
f 550 570 551 
f 543 563 544 
f 537 555 556 
f 552 570 571 
f 545 563 564 
f 537 557 538 
f 553 571 572 
f 545 565 546 
f 539 557 558 
f 554 572 573 
f 547 565 566 
f 555 402 574 
f 569 589 570 
f 562 582 563 
f 555 575 556 
f 571 589 590 
f 564 582 583 
f 556 576 557 
f 572 590 591 
f 564 584 565 
f 558 576 577 
f 572 592 573 
f 566 584 585 
f 558 578 559 
f 344 573 592 
f 566 586 567 
f 559 579 560 
f 567 587 568 
f 560 580 561 
f 569 587 588 
f 562 580 581 
f 592 610 611 
f 585 603 604 
f 577 597 578 
f 344 592 611 
f 585 605 586 
f 578 598 579 
f 586 606 587 
f 579 599 580 
f 588 606 607 
f 581 599 600 
f 574 402 593 
f 588 608 589 
f 581 601 582 
f 574 594 575 
f 590 608 609 
f 583 601 602 
f 575 595 576 
f 591 609 610 
f 583 603 584 
f 577 595 596 
f 607 625 626 
f 600 618 619 
f 593 402 612 
f 607 627 608 
f 600 620 601 
f 594 612 613 
f 609 627 628 
f 602 620 621 
f 594 614 595 
f 609 629 610 
f 602 622 603 
f 596 614 615 
f 610 630 611 
f 604 622 623 
f 596 616 597 
f 344 611 630 
f 604 624 605 
f 597 617 598 
f 605 625 606 
f 598 618 599 
f 621 641 622 
f 615 633 634 
f 630 1 648 
f 623 641 642 
f 615 635 616 
f 344 630 648 
f 623 643 624 
f 616 636 617 
f 624 644 625 
f 617 637 618 
f 626 644 645 
f 619 637 638 
f 612 402 631 
f 626 646 627 
f 619 639 620 
f 613 631 632 
f 628 646 647 
f 621 639 640 
f 613 633 614 
f 629 647 1 
f 640 11 12 
f 633 4 5 
f 648 1 19 
f 642 641 12 
f 635 634 5 
f 642 13 14 
f 636 635 6 
f 644 643 14 
f 637 636 7 
f 645 644 15 
f 638 637 8 
f 646 645 16 
f 638 9 10 
f 632 631 2 
f 647 646 17 
f 640 639 10 
f 633 632 3 
f 647 18 19 
f 6 25 26 
f 14 33 34 
f 8 7 26 
f 15 34 35 
f 8 27 28 
f 16 35 36 
f 9 28 29 
f 3 2 21 
f 17 36 37 
f 11 10 29 
f 4 3 22 
f 18 37 38 
f 11 30 31 
f 5 4 23 
f 19 38 39 
f 13 12 31 
f 5 24 25 
f 13 32 33 
f 21 40 41 
f 36 55 56 
f 30 29 48 
f 22 41 42 
f 37 56 57 
f 30 49 50 
f 24 23 42 
f 38 57 58 
f 32 31 50 
f 24 43 44 
f 32 51 52 
f 25 44 45 
f 33 52 53 
f 27 26 45 
f 34 53 54 
f 27 46 47 
f 35 54 55 
f 28 47 48 
f 52 51 70 
f 44 63 64 
f 52 71 72 
f 46 45 64 
f 54 53 72 
f 47 46 65 
f 54 73 74 
f 47 66 67 
f 40 59 60 
f 56 55 74 
f 49 48 67 
f 41 60 61 
f 57 56 75 
f 49 68 69 
f 43 42 61 
f 58 57 76 
f 51 50 69 
f 44 43 62 
f 73 92 93 
f 66 85 86 
f 59 78 79 
f 75 74 93 
f 68 67 86 
f 60 79 80 
f 76 75 94 
f 68 87 88 
f 62 61 80 
f 76 95 96 
f 70 69 88 
f 62 81 82 
f 71 70 89 
f 63 82 83 
f 71 90 91 
f 65 64 83 
f 73 72 91 
f 66 65 84 
f 88 107 108 
f 81 100 101 
f 90 89 108 
f 82 101 102 
f 90 109 110 
f 84 83 102 
f 92 91 110 
f 84 103 104 
f 92 111 112 
f 85 104 105 
f 78 97 98 
f 94 93 112 
f 87 86 105 
f 79 98 99 
f 95 94 113 
f 87 106 107 
f 81 80 99 
f 95 114 115 
f 103 122 123 
f 111 130 131 
f 104 123 124 
f 97 116 117 
f 113 112 131 
f 106 105 124 
f 98 117 118 
f 114 113 132 
f 106 125 126 
f 100 99 118 
f 114 133 134 
f 108 107 126 
f 100 119 120 
f 109 108 127 
f 101 120 121 
f 109 128 129 
f 103 102 121 
f 111 110 129 
f 119 118 137 
f 133 152 153 
f 127 126 145 
f 119 138 139 
f 128 127 146 
f 120 139 140 
f 128 147 148 
f 122 121 140 
f 130 129 148 
f 122 141 142 
f 130 149 150 
f 123 142 143 
f 116 135 136 
f 132 131 150 
f 125 124 143 
f 117 136 137 
f 133 132 151 
f 125 144 145 
f 149 148 167 
f 141 160 161 
f 149 168 169 
f 142 161 162 
f 136 135 154 
f 151 150 169 
f 144 143 162 
f 136 155 156 
f 152 151 170 
f 144 163 164 
f 137 156 157 
f 152 171 172 
f 146 145 164 
f 138 157 158 
f 147 146 165 
f 139 158 159 
f 147 166 167 
f 141 140 159 
f 163 182 183 
f 156 175 176 
f 171 190 191 
f 165 164 183 
f 157 176 177 
f 166 165 184 
f 158 177 178 
f 166 185 186 
f 160 159 178 
f 168 167 186 
f 160 179 180 
f 168 187 188 
f 161 180 181 
f 155 154 173 
f 170 169 188 
f 163 162 181 
f 155 174 175 
f 171 170 189 
f 179 178 197 
f 187 186 205 
f 179 198 199 
f 187 206 207 
f 180 199 200 
f 173 192 193 
f 189 188 207 
f 182 181 200 
f 175 174 193 
f 190 189 208 
f 182 201 202 
f 175 194 195 
f 190 209 210 
f 184 183 202 
f 176 195 196 
f 185 184 203 
f 177 196 197 
f 185 204 205 
f 193 212 213 
f 209 208 227 
f 201 220 221 
f 194 213 214 
f 209 228 229 
f 203 202 221 
f 195 214 215 
f 204 203 222 
f 196 215 216 
f 204 223 224 
f 198 197 216 
f 206 205 224 
f 198 217 218 
f 206 225 226 
f 199 218 219 
f 192 211 212 
f 208 207 226 
f 201 200 219 
f 223 242 243 
f 217 216 235 
f 225 224 243 
f 217 236 237 
f 225 244 245 
f 218 237 238 
f 211 230 231 
f 227 226 245 
f 220 219 238 
f 212 231 232 
f 228 227 246 
f 220 239 240 
f 213 232 233 
f 228 247 248 
f 222 221 240 
f 215 214 233 
f 223 222 241 
f 215 234 235 
f 246 245 264 
f 239 238 257 
f 231 250 251 
f 247 246 265 
f 239 258 259 
f 232 251 252 
f 247 266 267 
f 241 240 259 
f 234 233 252 
f 242 241 260 
f 234 253 254 
f 242 261 262 
f 236 235 254 
f 244 243 262 
f 236 255 256 
f 244 263 264 
f 237 256 257 
f 230 249 250 
f 261 260 279 
f 253 272 273 
f 261 280 281 
f 255 254 273 
f 263 262 281 
f 255 274 275 
f 263 282 283 
f 256 275 276 
f 249 268 269 
f 265 264 283 
f 258 257 276 
f 250 269 270 
f 266 265 284 
f 258 277 278 
f 251 270 271 
f 266 285 286 
f 260 259 278 
f 253 252 271 
f 275 294 295 
f 268 287 288 
f 284 283 302 
f 277 276 295 
f 269 288 289 
f 285 284 303 
f 277 296 297 
f 270 289 290 
f 285 304 305 
f 279 278 297 
f 272 271 290 
f 280 279 298 
f 272 291 292 
f 280 299 300 
f 274 273 292 
f 281 300 301 
f 274 293 294 
f 282 301 302 
f 291 290 309 
f 299 298 317 
f 291 310 311 
f 299 318 319 
f 293 292 311 
f 300 319 320 
f 293 312 313 
f 301 320 321 
f 294 313 314 
f 287 306 307 
f 303 302 321 
f 296 295 314 
f 288 307 308 
f 304 303 322 
f 296 315 316 
f 289 308 309 
f 305 304 323 
f 298 297 316 
f 320 339 340 
f 313 332 333 
f 306 325 326 
f 322 321 340 
f 315 314 333 
f 307 326 327 
f 323 322 341 
f 315 334 335 
f 308 327 328 
f 324 323 342 
f 317 316 335 
f 309 328 329 
f 318 317 336 
f 310 329 330 
f 318 337 338 
f 312 311 330 
f 320 319 338 
f 312 331 332 
f 336 335 355 
f 329 328 348 
f 337 336 356 
f 329 349 350 
f 337 357 358 
f 331 330 350 
f 339 338 358 
f 331 351 352 
f 339 359 360 
f 332 352 353 
f 325 345 346 
f 341 340 360 
f 334 333 353 
f 326 346 347 
f 342 341 361 
f 334 354 355 
f 327 347 348 
f 343 342 362 
f 352 351 370 
f 359 378 379 
f 352 371 372 
f 345 364 365 
f 361 360 379 
f 354 353 372 
f 346 365 366 
f 362 361 380 
f 354 373 374 
f 348 347 366 
f 363 362 381 
f 356 355 374 
f 348 367 368 
f 357 356 375 
f 349 368 369 
f 357 376 377 
f 351 350 369 
f 359 358 377 
f 367 366 385 
f 381 400 401 
f 375 374 393 
f 368 367 386 
f 376 375 394 
f 368 387 388 
f 376 395 396 
f 370 369 388 
f 377 396 397 
f 371 370 389 
f 378 397 398 
f 371 390 391 
f 364 383 384 
f 380 379 398 
f 373 372 391 
f 365 384 385 
f 381 380 399 
f 373 392 393 
f 396 416 417 
f 390 389 409 
f 397 417 418 
f 390 410 411 
f 383 403 404 
f 399 398 418 
f 392 391 411 
f 384 404 405 
f 400 399 419 
f 392 412 413 
f 385 405 406 
f 400 420 421 
f 394 393 413 
f 387 386 406 
f 395 394 414 
f 387 407 408 
f 395 415 416 
f 389 388 408 
f 420 419 438 
f 412 431 432 
f 406 405 424 
f 420 439 440 
f 414 413 432 
f 406 425 426 
f 415 414 433 
f 407 426 427 
f 415 434 435 
f 409 408 427 
f 416 435 436 
f 410 409 428 
f 417 436 437 
f 410 429 430 
f 403 422 423 
f 419 418 437 
f 412 411 430 
f 404 423 424 
f 434 453 454 
f 428 427 446 
f 436 435 454 
f 429 428 447 
f 436 455 456 
f 429 448 449 
f 422 441 442 
f 437 456 457 
f 431 430 449 
f 423 442 443 
f 439 438 457 
f 431 450 451 
f 425 424 443 
f 439 458 459 
f 433 432 451 
f 426 425 444 
f 433 452 453 
f 426 445 446 
f 450 449 468 
f 442 461 462 
f 458 457 476 
f 450 469 470 
f 444 443 462 
f 458 477 478 
f 452 451 470 
f 445 444 463 
f 452 471 472 
f 446 445 464 
f 453 472 473 
f 447 446 465 
f 455 454 473 
f 448 447 466 
f 455 474 475 
f 448 467 468 
f 441 460 461 
f 456 475 476 
f 465 464 483 
f 472 491 492 
f 466 465 484 
f 474 473 492 
f 467 466 485 
f 474 493 494 
f 467 486 487 
f 461 460 479 
f 476 475 494 
f 469 468 487 
f 461 480 481 
f 477 476 495 
f 469 488 489 
f 463 462 481 
f 478 477 496 
f 471 470 489 
f 463 482 483 
f 471 490 491 
f 479 498 499 
f 495 494 513 
f 488 487 506 
f 480 499 500 
f 496 495 514 
f 488 507 508 
f 482 481 500 
f 497 496 515 
f 490 489 508 
f 483 482 501 
f 490 509 510 
f 484 483 502 
f 491 510 511 
f 485 484 503 
f 493 492 511 
f 486 485 504 
f 493 512 513 
f 486 505 506 
f 509 528 529 
f 503 502 521 
f 510 529 530 
f 504 503 522 
f 512 511 530 
f 505 504 523 
f 512 531 532 
f 505 524 525 
f 498 517 518 
f 513 532 533 
f 507 506 525 
f 499 518 519 
f 515 514 533 
f 507 526 527 
f 501 500 519 
f 515 534 535 
f 509 508 527 
f 501 520 521 
f 524 543 544 
f 517 536 537 
f 533 532 551 
f 526 525 544 
f 518 537 538 
f 534 533 552 
f 526 545 546 
f 520 519 538 
f 534 553 554 
f 528 527 546 
f 520 539 540 
f 528 547 548 
f 522 521 540 
f 529 548 549 
f 523 522 541 
f 531 530 549 
f 524 523 542 
f 531 550 551 
f 539 558 559 
f 547 566 567 
f 541 540 559 
f 548 567 568 
f 541 560 561 
f 550 549 568 
f 543 542 561 
f 550 569 570 
f 543 562 563 
f 537 536 555 
f 552 551 570 
f 545 544 563 
f 537 556 557 
f 553 552 571 
f 545 564 565 
f 539 538 557 
f 554 553 572 
f 547 546 565 
f 569 588 589 
f 562 581 582 
f 555 574 575 
f 571 570 589 
f 564 563 582 
f 556 575 576 
f 572 571 590 
f 564 583 584 
f 558 557 576 
f 572 591 592 
f 566 565 584 
f 558 577 578 
f 566 585 586 
f 559 578 579 
f 567 586 587 
f 560 579 580 
f 569 568 587 
f 562 561 580 
f 592 591 610 
f 585 584 603 
f 577 596 597 
f 585 604 605 
f 578 597 598 
f 586 605 606 
f 579 598 599 
f 588 587 606 
f 581 580 599 
f 588 607 608 
f 581 600 601 
f 574 593 594 
f 590 589 608 
f 583 582 601 
f 575 594 595 
f 591 590 609 
f 583 602 603 
f 577 576 595 
f 607 606 625 
f 600 599 618 
f 607 626 627 
f 600 619 620 
f 594 593 612 
f 609 608 627 
f 602 601 620 
f 594 613 614 
f 609 628 629 
f 602 621 622 
f 596 595 614 
f 610 629 630 
f 604 603 622 
f 596 615 616 
f 604 623 624 
f 597 616 617 
f 605 624 625 
f 598 617 618 
f 621 640 641 
f 615 614 633 
f 630 629 1 
f 623 622 641 
f 615 634 635 
f 623 642 643 
f 616 635 636 
f 624 643 644 
f 617 636 637 
f 626 625 644 
f 619 618 637 
f 626 645 646 
f 619 638 639 
f 613 612 631 
f 628 627 646 
f 621 620 639 
f 613 632 633 
f 629 628 647 
