This file contains any messages produced by compilers while
running configure, to aid debugging if configure makes a mistake.

It was created by PRJ_NAME_HERE configure 1.0, which was
generated by GNU Autoconf 2.69.  Invocation command line was

  $ ./configure --no-create --no-recursion

## --------- ##
## Platform. ##
## --------- ##

hostname = localhost.localdomain
uname -m = x86_64
uname -r = 4.20.16-200.fc29.x86_64
uname -s = Linux
uname -v = #1 SMP Thu Mar 14 15:10:22 UTC 2019

/usr/bin/uname -p = x86_64
/bin/uname -X     = unknown

/bin/arch              = x86_64
/usr/bin/arch -k       = unknown
/usr/convex/getsysinfo = unknown
/usr/bin/hostinfo      = unknown
/bin/machine           = unknown
/usr/bin/oslevel       = unknown
/bin/universe          = unknown

PATH: /home/austin/.cargo/bin
PATH: /home/austin/.gvm/bin
PATH: /usr/local/cuda-9.0/bin
PATH: /home/austin/.gvm/bin
PATH: /usr/local/cuda-9.0/bin
PATH: /home/austin/.cargo/bin
PATH: /usr/share/Modules/bin
PATH: /usr/lib64/ccache
PATH: /home/austin/.gvm/bin
PATH: /usr/local/cuda-9.0/bin
PATH: /home/austin/.gvm/bin
PATH: /home/austin/.cargo/bin
PATH: /usr/local/bin
PATH: /usr/local/sbin
PATH: /usr/bin
PATH: /usr/sbin
PATH: /home/austin/.local/bin
PATH: .
PATH: /home/austin/Android/Sdk/emulator
PATH: /home/austin/Android/Sdk/tools
PATH: /home/austin/Android/Sdk/tools/bin
PATH: /home/austin/Android/Sdk/platform-tools
PATH: /home/austin/.cargo/bin
PATH: /home/austin/go/bin
PATH: /home/austin/bin
PATH: /home/austin/.local/bin
PATH: .
PATH: /home/austin/Android/Sdk/emulator
PATH: /home/austin/Android/Sdk/tools
PATH: /home/austin/Android/Sdk/tools/bin
PATH: /home/austin/Android/Sdk/platform-tools
PATH: /home/austin/.cargo/bin
PATH: /home/austin/go/bin
PATH: /home/austin/.local/bin
PATH: .
PATH: /home/austin/Android/Sdk/emulator
PATH: /home/austin/Android/Sdk/tools
PATH: /home/austin/Android/Sdk/tools/bin
PATH: /home/austin/Android/Sdk/platform-tools
PATH: /home/austin/.cargo/bin
PATH: /home/austin/go/bin
PATH: /home/austin/bin


## ----------- ##
## Core tests. ##
## ----------- ##

configure:2170: checking for a BSD-compatible install
configure:2238: result: /usr/bin/install -c
configure:2249: checking whether build environment is sane
configure:2304: result: yes
configure:2455: checking for a thread-safe mkdir -p
configure:2494: result: /usr/bin/mkdir -p
configure:2501: checking for gawk
configure:2517: found /usr/bin/gawk
configure:2528: result: gawk
configure:2539: checking whether make sets $(MAKE)
configure:2561: result: yes
configure:2590: checking whether make supports nested variables
configure:2607: result: yes
configure:2783: checking for gcc
configure:2799: found /usr/lib64/ccache/gcc
configure:2810: result: gcc
configure:3039: checking for C compiler version
configure:3048: gcc --version >&5
gcc (GCC) 8.3.1 20190223 (Red Hat 8.3.1-2)
Copyright (C) 2018 Free Software Foundation, Inc.
This is free software; see the source for copying conditions.  There is NO
warranty; not even for MERCHANTABILITY or FITNESS FOR A PARTICULAR PURPOSE.

configure:3059: $? = 0
configure:3048: gcc -v >&5
Using built-in specs.
COLLECT_GCC=/usr/bin/gcc
COLLECT_LTO_WRAPPER=/usr/libexec/gcc/x86_64-redhat-linux/8/lto-wrapper
OFFLOAD_TARGET_NAMES=nvptx-none
OFFLOAD_TARGET_DEFAULT=1
Target: x86_64-redhat-linux
Configured with: ../configure --enable-bootstrap --enable-languages=c,c++,fortran,objc,obj-c++,ada,go,lto --prefix=/usr --mandir=/usr/share/man --infodir=/usr/share/info --with-bugurl=http://bugzilla.redhat.com/bugzilla --enable-shared --enable-threads=posix --enable-checking=release --enable-multilib --with-system-zlib --enable-__cxa_atexit --disable-libunwind-exceptions --enable-gnu-unique-object --enable-linker-build-id --with-gcc-major-version-only --with-linker-hash-style=gnu --enable-plugin --enable-initfini-array --with-isl --enable-libmpx --enable-offload-targets=nvptx-none --without-cuda-driver --enable-gnu-indirect-function --enable-cet --with-tune=generic --with-arch_32=i686 --build=x86_64-redhat-linux
Thread model: posix
gcc version 8.3.1 20190223 (Red Hat 8.3.1-2) (GCC) 
configure:3059: $? = 0
configure:3048: gcc -V >&5
gcc: error: unrecognized command line option '-V'
gcc: fatal error: no input files
compilation terminated.
configure:3059: $? = 1
configure:3048: gcc -qversion >&5
gcc: error: unrecognized command line option '-qversion'; did you mean '--version'?
gcc: fatal error: no input files
compilation terminated.
configure:3059: $? = 1
configure:3079: checking whether the C compiler works
configure:3101: gcc    conftest.c  >&5
configure:3105: $? = 0
configure:3153: result: yes
configure:3156: checking for C compiler default output file name
configure:3158: result: a.out
configure:3164: checking for suffix of executables
configure:3171: gcc -o conftest    conftest.c  >&5
configure:3175: $? = 0
configure:3197: result: 
configure:3219: checking whether we are cross compiling
configure:3227: gcc -o conftest    conftest.c  >&5
configure:3231: $? = 0
configure:3238: ./conftest
configure:3242: $? = 0
configure:3257: result: no
configure:3262: checking for suffix of object files
configure:3284: gcc -c   conftest.c >&5
configure:3288: $? = 0
configure:3309: result: o
configure:3313: checking whether we are using the GNU C compiler
configure:3332: gcc -c   conftest.c >&5
configure:3332: $? = 0
configure:3341: result: yes
configure:3350: checking whether gcc accepts -g
configure:3370: gcc -c -g  conftest.c >&5
configure:3370: $? = 0
configure:3411: result: yes
configure:3428: checking for gcc option to accept ISO C89
configure:3491: gcc  -c -g -O2  conftest.c >&5
configure:3491: $? = 0
configure:3504: result: none needed
configure:3529: checking whether gcc understands -c and -o together
configure:3551: gcc -c conftest.c -o conftest2.o
configure:3554: $? = 0
configure:3551: gcc -c conftest.c -o conftest2.o
configure:3554: $? = 0
configure:3566: result: yes
configure:3586: checking whether make supports the include directive
configure:3601: make -f confmf.GNU && cat confinc.out
make[1]: Entering directory '/home/austin/tsinghua/spring/graphics/final_projs/Project2/TerrainEngine/hw3'
make[1]: Leaving directory '/home/austin/tsinghua/spring/graphics/final_projs/Project2/TerrainEngine/hw3'
this is the am__doit target
configure:3604: $? = 0
configure:3623: result: yes (GNU style)
configure:3648: checking dependency style of gcc
configure:3759: result: gcc3
configure:3832: checking for g++
configure:3848: found /usr/lib64/ccache/g++
configure:3859: result: g++
configure:3886: checking for C++ compiler version
configure:3895: g++ --version >&5
g++ (GCC) 8.3.1 20190223 (Red Hat 8.3.1-2)
Copyright (C) 2018 Free Software Foundation, Inc.
This is free software; see the source for copying conditions.  There is NO
warranty; not even for MERCHANTABILITY or FITNESS FOR A PARTICULAR PURPOSE.

configure:3906: $? = 0
configure:3895: g++ -v >&5
Using built-in specs.
COLLECT_GCC=/usr/bin/g++
COLLECT_LTO_WRAPPER=/usr/libexec/gcc/x86_64-redhat-linux/8/lto-wrapper
OFFLOAD_TARGET_NAMES=nvptx-none
OFFLOAD_TARGET_DEFAULT=1
Target: x86_64-redhat-linux
Configured with: ../configure --enable-bootstrap --enable-languages=c,c++,fortran,objc,obj-c++,ada,go,lto --prefix=/usr --mandir=/usr/share/man --infodir=/usr/share/info --with-bugurl=http://bugzilla.redhat.com/bugzilla --enable-shared --enable-threads=posix --enable-checking=release --enable-multilib --with-system-zlib --enable-__cxa_atexit --disable-libunwind-exceptions --enable-gnu-unique-object --enable-linker-build-id --with-gcc-major-version-only --with-linker-hash-style=gnu --enable-plugin --enable-initfini-array --with-isl --enable-libmpx --enable-offload-targets=nvptx-none --without-cuda-driver --enable-gnu-indirect-function --enable-cet --with-tune=generic --with-arch_32=i686 --build=x86_64-redhat-linux
Thread model: posix
gcc version 8.3.1 20190223 (Red Hat 8.3.1-2) (GCC) 
configure:3906: $? = 0
configure:3895: g++ -V >&5
g++: error: unrecognized command line option '-V'
g++: fatal error: no input files
compilation terminated.
configure:3906: $? = 1
configure:3895: g++ -qversion >&5
g++: error: unrecognized command line option '-qversion'; did you mean '--version'?
g++: fatal error: no input files
compilation terminated.
configure:3906: $? = 1
configure:3910: checking whether we are using the GNU C++ compiler
configure:3929: g++ -c   conftest.cpp >&5
configure:3929: $? = 0
configure:3938: result: yes
configure:3947: checking whether g++ accepts -g
configure:3967: g++ -c -g  conftest.cpp >&5
configure:3967: $? = 0
configure:4008: result: yes
configure:4033: checking dependency style of g++
configure:4144: result: gcc3
configure:4165: checking for glad
configure:4183: found /usr/bin/glad
configure:4196: result: /usr/bin/glad
configure:4210: checking for glfwInit in -lglfw
configure:4235: gcc -o conftest -g -O2   conftest.c -lglfw   >&5
configure:4235: $? = 0
configure:4244: result: yes
configure:4258: checking for dlopen in -ldl
configure:4283: gcc -o conftest -g -O2   conftest.c -ldl  -lglfw  >&5
configure:4283: $? = 0
configure:4292: result: yes
configure:4306: checking for SOIL_load_image in -lSOIL
configure:4331: gcc -o conftest -g -O2   conftest.c -lSOIL  -ldl -lglfw  >&5
configure:4331: $? = 0
configure:4340: result: yes
configure:4360: checking how to run the C preprocessor
configure:4391: gcc -E  conftest.c
configure:4391: $? = 0
configure:4405: gcc -E  conftest.c
conftest.c:14:10: fatal error: ac_nonexistent.h: No such file or directory
 #include <ac_nonexistent.h>
          ^~~~~~~~~~~~~~~~~~
compilation terminated.
configure:4405: $? = 1
configure: failed program was:
| /* confdefs.h */
| #define PACKAGE_NAME "PRJ_NAME_HERE"
| #define PACKAGE_TARNAME "proj_name"
| #define PACKAGE_VERSION "1.0"
| #define PACKAGE_STRING "PRJ_NAME_HERE 1.0"
| #define PACKAGE_BUGREPORT "YOUR_EMAIL_HERE"
| #define PACKAGE_URL ""
| #define PACKAGE "proj_name"
| #define VERSION "1.0"
| #define HAVE_LIBGLFW 1
| #define HAVE_LIBDL 1
| #define HAVE_LIBSOIL 1
| /* end confdefs.h.  */
| #include <ac_nonexistent.h>
configure:4430: result: gcc -E
configure:4450: gcc -E  conftest.c
configure:4450: $? = 0
configure:4464: gcc -E  conftest.c
conftest.c:14:10: fatal error: ac_nonexistent.h: No such file or directory
 #include <ac_nonexistent.h>
          ^~~~~~~~~~~~~~~~~~
compilation terminated.
configure:4464: $? = 1
configure: failed program was:
| /* confdefs.h */
| #define PACKAGE_NAME "PRJ_NAME_HERE"
| #define PACKAGE_TARNAME "proj_name"
| #define PACKAGE_VERSION "1.0"
| #define PACKAGE_STRING "PRJ_NAME_HERE 1.0"
| #define PACKAGE_BUGREPORT "YOUR_EMAIL_HERE"
| #define PACKAGE_URL ""
| #define PACKAGE "proj_name"
| #define VERSION "1.0"
| #define HAVE_LIBGLFW 1
| #define HAVE_LIBDL 1
| #define HAVE_LIBSOIL 1
| /* end confdefs.h.  */
| #include <ac_nonexistent.h>
configure:4493: checking for grep that handles long lines and -e
configure:4551: result: /usr/bin/grep
configure:4556: checking for egrep
configure:4618: result: /usr/bin/grep -E
configure:4623: checking for ANSI C header files
configure:4643: gcc -c -g -O2  conftest.c >&5
configure:4643: $? = 0
configure:4716: gcc -o conftest -g -O2   conftest.c -lSOIL -ldl -lglfw  >&5
configure:4716: $? = 0
configure:4716: ./conftest
configure:4716: $? = 0
configure:4727: result: yes
configure:4740: checking for sys/types.h
configure:4740: gcc -c -g -O2  conftest.c >&5
configure:4740: $? = 0
configure:4740: result: yes
configure:4740: checking for sys/stat.h
configure:4740: gcc -c -g -O2  conftest.c >&5
configure:4740: $? = 0
configure:4740: result: yes
configure:4740: checking for stdlib.h
configure:4740: gcc -c -g -O2  conftest.c >&5
configure:4740: $? = 0
configure:4740: result: yes
configure:4740: checking for string.h
configure:4740: gcc -c -g -O2  conftest.c >&5
configure:4740: $? = 0
configure:4740: result: yes
configure:4740: checking for memory.h
configure:4740: gcc -c -g -O2  conftest.c >&5
configure:4740: $? = 0
configure:4740: result: yes
configure:4740: checking for strings.h
configure:4740: gcc -c -g -O2  conftest.c >&5
configure:4740: $? = 0
configure:4740: result: yes
configure:4740: checking for inttypes.h
configure:4740: gcc -c -g -O2  conftest.c >&5
configure:4740: $? = 0
configure:4740: result: yes
configure:4740: checking for stdint.h
configure:4740: gcc -c -g -O2  conftest.c >&5
configure:4740: $? = 0
configure:4740: result: yes
configure:4740: checking for unistd.h
configure:4740: gcc -c -g -O2  conftest.c >&5
configure:4740: $? = 0
configure:4740: result: yes
configure:4752: checking GLFW/glfw3.h usability
configure:4752: gcc -c -g -O2  conftest.c >&5
configure:4752: $? = 0
configure:4752: result: yes
configure:4752: checking GLFW/glfw3.h presence
configure:4752: gcc -E  conftest.c
configure:4752: $? = 0
configure:4752: result: yes
configure:4752: checking for GLFW/glfw3.h
configure:4752: result: yes
configure:4762: checking SOIL/SOIL.h usability
configure:4762: gcc -c -g -O2  conftest.c >&5
configure:4762: $? = 0
configure:4762: result: yes
configure:4762: checking SOIL/SOIL.h presence
configure:4762: gcc -E  conftest.c
configure:4762: $? = 0
configure:4762: result: yes
configure:4762: checking for SOIL/SOIL.h
configure:4762: result: yes
configure:4882: checking that generated files are newer than configure
configure:4888: result: done
configure:4915: creating ./config.status

## ---------------- ##
## Cache variables. ##
## ---------------- ##

ac_cv_c_compiler_gnu=yes
ac_cv_cxx_compiler_gnu=yes
ac_cv_env_CCC_set=
ac_cv_env_CCC_value=
ac_cv_env_CC_set=
ac_cv_env_CC_value=
ac_cv_env_CFLAGS_set=
ac_cv_env_CFLAGS_value=
ac_cv_env_CPPFLAGS_set=
ac_cv_env_CPPFLAGS_value=
ac_cv_env_CPP_set=
ac_cv_env_CPP_value=
ac_cv_env_CXXFLAGS_set=
ac_cv_env_CXXFLAGS_value=
ac_cv_env_CXX_set=
ac_cv_env_CXX_value=
ac_cv_env_LDFLAGS_set=
ac_cv_env_LDFLAGS_value=
ac_cv_env_LIBS_set=
ac_cv_env_LIBS_value=
ac_cv_env_build_alias_set=
ac_cv_env_build_alias_value=
ac_cv_env_host_alias_set=
ac_cv_env_host_alias_value=
ac_cv_env_target_alias_set=
ac_cv_env_target_alias_value=
ac_cv_header_GLFW_glfw3_h=yes
ac_cv_header_SOIL_SOIL_h=yes
ac_cv_header_inttypes_h=yes
ac_cv_header_memory_h=yes
ac_cv_header_stdc=yes
ac_cv_header_stdint_h=yes
ac_cv_header_stdlib_h=yes
ac_cv_header_string_h=yes
ac_cv_header_strings_h=yes
ac_cv_header_sys_stat_h=yes
ac_cv_header_sys_types_h=yes
ac_cv_header_unistd_h=yes
ac_cv_lib_SOIL_SOIL_load_image=yes
ac_cv_lib_dl_dlopen=yes
ac_cv_lib_glfw_glfwInit=yes
ac_cv_objext=o
ac_cv_path_EGREP='/usr/bin/grep -E'
ac_cv_path_GLAD_PATH=/usr/bin/glad
ac_cv_path_GREP=/usr/bin/grep
ac_cv_path_install='/usr/bin/install -c'
ac_cv_path_mkdir=/usr/bin/mkdir
ac_cv_prog_AWK=gawk
ac_cv_prog_CPP='gcc -E'
ac_cv_prog_ac_ct_CC=gcc
ac_cv_prog_ac_ct_CXX=g++
ac_cv_prog_cc_c89=
ac_cv_prog_cc_g=yes
ac_cv_prog_cxx_g=yes
ac_cv_prog_make_make_set=yes
am_cv_CC_dependencies_compiler_type=gcc3
am_cv_CXX_dependencies_compiler_type=gcc3
am_cv_make_support_nested_variables=yes
am_cv_prog_cc_c_o=yes

## ----------------- ##
## Output variables. ##
## ----------------- ##

ACLOCAL='${SHELL} /home/austin/tsinghua/spring/graphics/final_projs/Project2/TerrainEngine/hw3/missing aclocal-1.16'
AMDEPBACKSLASH='\'
AMDEP_FALSE='#'
AMDEP_TRUE=''
AMTAR='$${TAR-tar}'
AM_BACKSLASH='\'
AM_DEFAULT_V='$(AM_DEFAULT_VERBOSITY)'
AM_DEFAULT_VERBOSITY='1'
AM_V='$(V)'
AUTOCONF='${SHELL} /home/austin/tsinghua/spring/graphics/final_projs/Project2/TerrainEngine/hw3/missing autoconf'
AUTOHEADER='${SHELL} /home/austin/tsinghua/spring/graphics/final_projs/Project2/TerrainEngine/hw3/missing autoheader'
AUTOMAKE='${SHELL} /home/austin/tsinghua/spring/graphics/final_projs/Project2/TerrainEngine/hw3/missing automake-1.16'
AWK='gawk'
CC='gcc'
CCDEPMODE='depmode=gcc3'
CFLAGS='-g -O2'
CPP='gcc -E'
CPPFLAGS=''
CXX='g++'
CXXDEPMODE='depmode=gcc3'
CXXFLAGS='-g -O2'
CYGPATH_W='echo'
DEFS='-DHAVE_CONFIG_H'
DEPDIR='.deps'
ECHO_C=''
ECHO_N='-n'
ECHO_T=''
EGREP='/usr/bin/grep -E'
EXEEXT=''
GLAD_PATH='/usr/bin/glad'
GREP='/usr/bin/grep'
INSTALL_DATA='${INSTALL} -m 644'
INSTALL_PROGRAM='${INSTALL}'
INSTALL_SCRIPT='${INSTALL}'
INSTALL_STRIP_PROGRAM='$(install_sh) -c -s'
LDFLAGS=''
LIBOBJS=''
LIBS='-lSOIL -ldl -lglfw '
LTLIBOBJS=''
MAKEINFO='${SHELL} /home/austin/tsinghua/spring/graphics/final_projs/Project2/TerrainEngine/hw3/missing makeinfo'
MKDIR_P='/usr/bin/mkdir -p'
OBJEXT='o'
PACKAGE='proj_name'
PACKAGE_BUGREPORT='YOUR_EMAIL_HERE'
PACKAGE_NAME='PRJ_NAME_HERE'
PACKAGE_STRING='PRJ_NAME_HERE 1.0'
PACKAGE_TARNAME='proj_name'
PACKAGE_URL=''
PACKAGE_VERSION='1.0'
PATH_SEPARATOR=':'
PROG_NAME='program_name_here'
SET_MAKE=''
SHELL='/bin/sh'
STRIP=''
VERSION='1.0'
ac_ct_CC='gcc'
ac_ct_CXX='g++'
am__EXEEXT_FALSE=''
am__EXEEXT_TRUE='#'
am__fastdepCC_FALSE='#'
am__fastdepCC_TRUE=''
am__fastdepCXX_FALSE='#'
am__fastdepCXX_TRUE=''
am__include='include'
am__isrc=''
am__leading_dot='.'
am__nodep='_no'
am__quote=''
am__tar='$${TAR-tar} chof - "$$tardir"'
am__untar='$${TAR-tar} xf -'
bindir='${exec_prefix}/bin'
build_alias=''
datadir='${datarootdir}'
datarootdir='${prefix}/share'
docdir='${datarootdir}/doc/${PACKAGE_TARNAME}'
dvidir='${docdir}'
exec_prefix='${prefix}'
host_alias=''
htmldir='${docdir}'
includedir='${prefix}/include'
infodir='${datarootdir}/info'
install_sh='${SHELL} /home/austin/tsinghua/spring/graphics/final_projs/Project2/TerrainEngine/hw3/install-sh'
libdir='${exec_prefix}/lib'
libexecdir='${exec_prefix}/libexec'
localedir='${datarootdir}/locale'
localstatedir='${prefix}/var'
mandir='${datarootdir}/man'
mkdir_p='$(MKDIR_P)'
oldincludedir='/usr/include'
pdfdir='${docdir}'
prefix='/usr/local'
program_transform_name='s,x,x,'
psdir='${docdir}'
sbindir='${exec_prefix}/sbin'
sharedstatedir='${prefix}/com'
sysconfdir='${prefix}/etc'
target_alias=''

## ----------- ##
## confdefs.h. ##
## ----------- ##

/* confdefs.h */
#define PACKAGE_NAME "PRJ_NAME_HERE"
#define PACKAGE_TARNAME "proj_name"
#define PACKAGE_VERSION "1.0"
#define PACKAGE_STRING "PRJ_NAME_HERE 1.0"
#define PACKAGE_BUGREPORT "YOUR_EMAIL_HERE"
#define PACKAGE_URL ""
#define PACKAGE "proj_name"
#define VERSION "1.0"
#define HAVE_LIBGLFW 1
#define HAVE_LIBDL 1
#define HAVE_LIBSOIL 1
#define STDC_HEADERS 1
#define HAVE_SYS_TYPES_H 1
#define HAVE_SYS_STAT_H 1
#define HAVE_STDLIB_H 1
#define HAVE_STRING_H 1
#define HAVE_MEMORY_H 1
#define HAVE_STRINGS_H 1
#define HAVE_INTTYPES_H 1
#define HAVE_STDINT_H 1
#define HAVE_UNISTD_H 1
#define HAVE_GLFW3 1
#define HAVE_SOILD 1

configure: exit 0

## ---------------------- ##
## Running config.status. ##
## ---------------------- ##

This file was extended by PRJ_NAME_HERE config.status 1.0, which was
generated by GNU Autoconf 2.69.  Invocation command line was

  CONFIG_FILES    = 
  CONFIG_HEADERS  = 
  CONFIG_LINKS    = 
  CONFIG_COMMANDS = 
  $ ./config.status 

on localhost.localdomain

config.status:866: creating Makefile
config.status:866: creating src/Makefile
config.status:866: creating config.h
config.status:1047: config.h is unchanged
config.status:1095: executing depfiles commands
config.status:1172: cd src       && sed -e '/# am--include-marker/d' Makefile         | make -f - am--depfiles
make[1]: Entering directory '/home/austin/tsinghua/spring/graphics/final_projs/Project2/TerrainEngine/hw3/src'
make[1]: Leaving directory '/home/austin/tsinghua/spring/graphics/final_projs/Project2/TerrainEngine/hw3/src'
config.status:1177: $? = 0

## ---------------------- ##
## Running config.status. ##
## ---------------------- ##

This file was extended by PRJ_NAME_HERE config.status 1.0, which was
generated by GNU Autoconf 2.69.  Invocation command line was

  CONFIG_FILES    = 
  CONFIG_HEADERS  = 
  CONFIG_LINKS    = 
  CONFIG_COMMANDS = 
  $ ./config.status config.h

on localhost.localdomain

config.status:866: creating config.h
config.status:1047: config.h is unchanged

## ---------------------- ##
## Running config.status. ##
## ---------------------- ##

This file was extended by PRJ_NAME_HERE config.status 1.0, which was
generated by GNU Autoconf 2.69.  Invocation command line was

  CONFIG_FILES    = 
  CONFIG_HEADERS  = 
  CONFIG_LINKS    = 
  CONFIG_COMMANDS = 
  $ ./config.status src/Makefile depfiles

on localhost.localdomain

config.status:866: creating src/Makefile
config.status:1095: executing depfiles commands
config.status:1172: cd src       && sed -e '/# am--include-marker/d' Makefile         | make -f - am--depfiles
make[3]: Entering directory '/home/austin/tsinghua/spring/graphics/final_projs/Project2/TerrainEngine/hw3/src'
make[3]: Leaving directory '/home/austin/tsinghua/spring/graphics/final_projs/Project2/TerrainEngine/hw3/src'
config.status:1177: $? = 0

## ---------------------- ##
## Running config.status. ##
## ---------------------- ##

This file was extended by PRJ_NAME_HERE config.status 1.0, which was
generated by GNU Autoconf 2.69.  Invocation command line was

  CONFIG_FILES    = 
  CONFIG_HEADERS  = 
  CONFIG_LINKS    = 
  CONFIG_COMMANDS = 
  $ ./config.status src/Makefile depfiles

on localhost.localdomain

config.status:866: creating src/Makefile
config.status:1095: executing depfiles commands
config.status:1172: cd src       && sed -e '/# am--include-marker/d' Makefile         | make -f - am--depfiles
make[3]: Entering directory '/home/austin/tsinghua/spring/graphics/final_projs/Project2/TerrainEngine/hw3/src'
make[3]: Leaving directory '/home/austin/tsinghua/spring/graphics/final_projs/Project2/TerrainEngine/hw3/src'
config.status:1177: $? = 0

## ---------------------- ##
## Running config.status. ##
## ---------------------- ##

This file was extended by PRJ_NAME_HERE config.status 1.0, which was
generated by GNU Autoconf 2.69.  Invocation command line was

  CONFIG_FILES    = 
  CONFIG_HEADERS  = 
  CONFIG_LINKS    = 
  CONFIG_COMMANDS = 
  $ ./config.status src/Makefile depfiles

on localhost.localdomain

config.status:866: creating src/Makefile
config.status:1095: executing depfiles commands
config.status:1172: cd src       && sed -e '/# am--include-marker/d' Makefile         | make -f - am--depfiles
make[3]: Entering directory '/home/austin/tsinghua/spring/graphics/final_projs/Project2/TerrainEngine/hw3/src'
make[3]: Leaving directory '/home/austin/tsinghua/spring/graphics/final_projs/Project2/TerrainEngine/hw3/src'
config.status:1177: $? = 0

## ---------------------- ##
## Running config.status. ##
## ---------------------- ##

This file was extended by PRJ_NAME_HERE config.status 1.0, which was
generated by GNU Autoconf 2.69.  Invocation command line was

  CONFIG_FILES    = 
  CONFIG_HEADERS  = 
  CONFIG_LINKS    = 
  CONFIG_COMMANDS = 
  $ ./config.status src/Makefile depfiles

on localhost.localdomain

config.status:866: creating src/Makefile
config.status:1095: executing depfiles commands
config.status:1172: cd src       && sed -e '/# am--include-marker/d' Makefile         | make -f - am--depfiles
make[3]: Entering directory '/home/austin/tsinghua/spring/graphics/final_projs/Project2/TerrainEngine/hw3/src'
make[3]: Leaving directory '/home/austin/tsinghua/spring/graphics/final_projs/Project2/TerrainEngine/hw3/src'
config.status:1177: $? = 0

## ---------------------- ##
## Running config.status. ##
## ---------------------- ##

This file was extended by PRJ_NAME_HERE config.status 1.0, which was
generated by GNU Autoconf 2.69.  Invocation command line was

  CONFIG_FILES    = 
  CONFIG_HEADERS  = 
  CONFIG_LINKS    = 
  CONFIG_COMMANDS = 
  $ ./config.status src/Makefile depfiles

on localhost.localdomain

config.status:866: creating src/Makefile
config.status:1095: executing depfiles commands
config.status:1172: cd src       && sed -e '/# am--include-marker/d' Makefile         | make -f - am--depfiles
make[3]: Entering directory '/home/austin/tsinghua/spring/graphics/final_projs/Project2/TerrainEngine/hw3/src'
make[3]: Leaving directory '/home/austin/tsinghua/spring/graphics/final_projs/Project2/TerrainEngine/hw3/src'
config.status:1177: $? = 0
